{
    "KPackageStructure": "KWin/WindowSwitcher",
    "KPlugin": {
        "Authors": [
            {
                "Email": "zrenfire@gmail.com",
                "Name": "Chris Holland",
                "Name[ar]": "كريس هولاند",
                "Name[bg]": "Chris Holland",
                "Name[ca@valencia]": "Chris Holland",
                "Name[ca]": "Chris Holland",
                "Name[cs]": "Chris Holland",
                "Name[de]": "Chris Holland",
                "Name[en_GB]": "Chris Holland",
                "Name[eo]": "Chris Holland",
                "Name[es]": "Chris Holland",
                "Name[eu]": "Chris Holland",
                "Name[fi]": "Chris Holland",
                "Name[fr]": "Chris Holland",
                "Name[ia]": "Chris Holland",
                "Name[it]": "Chris Holland",
                "Name[ja]": "Chris Holland",
                "Name[ka]": "Chris Holland",
                "Name[ko]": "Chris Holland",
                "Name[nl]": "Chris Holland",
                "Name[nn]": "Chris Holland",
                "Name[pl]": "Chris Holland",
                "Name[sl]": "Chris Holland",
                "Name[ta]": "கிரிஸ் ஹாளண்டு",
                "Name[tr]": "Chris Holland",
                "Name[uk]": "Chris Holland",
                "Name[x-test]": "xxChris Hollandxx",
                "Name[zh_CN]": "Chris Holland",
                "Name[zh_TW]": "Chris Holland"
            }
        ],
        "Description": "A window switcher layout using a small grid of thumbnails",
        "Description[ar]": "مخطط مبدل نوافذ يستخدم شبكة صغيرة من المصغرات",
        "Description[bg]": "Оформление на превключвател на прозорци, използващ решетка от миниатюри",
        "Description[ca@valencia]": "Una disposició del commutador de finestres que utilitza una quadrícula xicoteta de miniatures",
        "Description[ca]": "Una disposició del commutador de finestres que utilitza una quadrícula petita de miniatures",
        "Description[cs]": "Přepínač oken používající malou mřížku náhledů",
        "Description[de]": "Ein Fensterwechsler-Layout, das ein Raster von kleinen Vorschaubildern verwendet",
        "Description[en_GB]": "A window switcher layout using a small grid of thumbnails",
        "Description[eo]": "Fenestroŝaltila aranĝo uzante malgrandan kradon de bildetoj",
        "Description[es]": "Un esquema de selector de ventanas que usa una pequeña cuadrícula de miniaturas",
        "Description[eu]": "Koadro txikien sareta txiki bat erabiltzen duen leiho-trukatzaile antolaera bat",
        "Description[fi]": "Pientä pienoiskuvaruudukkoa käyttävä ikkunavaihto",
        "Description[fr]": "Une disposition du sélecteur de fenêtres utilisant une petite grille de vignettes.",
        "Description[ia]": "Un disposition de commutator de fenestra usante un parve grillia de miniaturas",
        "Description[it]": "Una disposizione per il cambio finestra che utilizza una piccola griglia di miniature",
        "Description[ja]": "サムネイルの小さいグリッドを使用するウィンドウスイッチャー",
        "Description[ka]": "ფანჯრების განლაგების გადართვა მინიატურების პატარა ბადის ჩვენების საშუალებით",
        "Description[ko]": "작은 섬네일 격자를 사용하는 창 전환기 레이아웃",
        "Description[nl]": "Een indeling van de vensterwisselaar met een klein raster van miniaturen",
        "Description[nn]": "Vindaugsbytar som viser eit rutenett med miniatyrbilete",
        "Description[pl]": "Układ przełączania okien, używający małej siatki miniatur",
        "Description[sl]": "Okenski preklopnik postavitve z uporabo majhne mreže predoglednih sličic",
        "Description[ta]": "சிறுபடங்களை கிரிடாக காட்டும் சாளர மாற்றி",
        "Description[tr]": "Küçük bir küçük görsel ızgarası kullanan pencere değiştirici yerleşimi",
        "Description[uk]": "Компонування засобу перемикання вікон з малою таблицею мініатюр поточного стану вікон",
        "Description[x-test]": "xxA window switcher layout using a small grid of thumbnailsxx",
        "Description[zh_CN]": "将窗口缩略图以小型网格排列的窗口切换器布局",
        "Description[zh_TW]": "使用小型縮圖格線的視窗切換器佈局",
        "Icon": "preferences-system-windows-switcher-thumbnail-grid",
        "Id": "thumbnail_grid",
        "License": "GPL",
        "Name": "Thumbnail Grid",
        "Name[ar]": "شبكة المصغرات",
        "Name[bg]": "Миниатюри в решетка",
        "Name[ca@valencia]": "Quadrícula de miniatures",
        "Name[ca]": "Quadrícula de miniatures",
        "Name[cs]": "Mřížka náhledů",
        "Name[de]": "Vorschaubilder-Raster",
        "Name[en_GB]": "Thumbnail Grid",
        "Name[eo]": "Bildeta Krado",
        "Name[es]": "Cuadrícula de miniaturas",
        "Name[eu]": "Koadro txikien sareta",
        "Name[fi]": "Pienoiskuvaruudukko",
        "Name[fr]": "Grille de vignettes",
        "Name[ia]": "Grillia de Miniatura",
        "Name[it]": "Griglia delle miniature",
        "Name[ja]": "サムネイルグリッド",
        "Name[ka]": "მინიატურის ბადე",
        "Name[ko]": "섬네일 격자",
        "Name[nl]": "Raster voor miniaturen",
        "Name[nn]": "Rutenett med miniatyrbilete",
        "Name[pl]": "Siatka miniatur",
        "Name[sl]": "Mreža predoglednih sličic",
        "Name[ta]": "சிறுபட கிரிட்",
        "Name[tr]": "Küçük Görsel Izgarası",
        "Name[uk]": "Таблиця мініатюр",
        "Name[x-test]": "xxThumbnail Gridxx",
        "Name[zh_CN]": "缩略图网格",
        "Name[zh_TW]": "縮圖格線",
        "Version": "6"
    },
    "X-Plasma-API": "declarativeappletscript",
    "X-Plasma-MainScript": "ui/main.qml"
}
